<?xml version="1.0" encoding="UTF-8" standalone="no"?>
<!-- Created with Inkscape (http://www.inkscape.org/) -->

<svg
   xmlns:dc="http://purl.org/dc/elements/1.1/"
   xmlns:cc="http://creativecommons.org/ns#"
   xmlns:rdf="http://www.w3.org/1999/02/22-rdf-syntax-ns#"
   xmlns:svg="http://www.w3.org/2000/svg"
   xmlns="http://www.w3.org/2000/svg"
   xmlns:sodipodi="http://sodipodi.sourceforge.net/DTD/sodipodi-0.dtd"
   xmlns:inkscape="http://www.inkscape.org/namespaces/inkscape"
   width="300"
   height="300"
   viewBox="0 0 300 300"
   id="svg4929"
   version="1.1"
   inkscape:version="0.91 r13725"
   sodipodi:docname="zags.svg">
  <defs
     id="defs4931" />
  <sodipodi:namedview
     id="base"
     pagecolor="#ffffff"
     bordercolor="#666666"
     borderopacity="1.0"
     inkscape:pageopacity="0.0"
     inkscape:pageshadow="2"
     inkscape:zoom="1"
     inkscape:cx="150.70628"
     inkscape:cy="265.0916"
     inkscape:document-units="px"
     inkscape:current-layer="layer1"
     showgrid="false"
     units="px"
     inkscape:window-width="1298"
     inkscape:window-height="739"
     inkscape:window-x="0"
     inkscape:window-y="0"
     inkscape:window-maximized="1" />
  <metadata
     id="metadata4934">
    <rdf:RDF>
      <cc:Work
         rdf:about="">
        <dc:format>image/svg+xml</dc:format>
        <dc:type
           rdf:resource="http://purl.org/dc/dcmitype/StillImage" />
        <dc:title></dc:title>
      </cc:Work>
    </rdf:RDF>
  </metadata>
  <g
     inkscape:label="Layer 1"
     inkscape:groupmode="layer"
     id="layer1"
     transform="translate(0,-752.36216)">
    <path
       style="fill:none;fill-rule:evenodd;stroke:#000000;stroke-width:5;stroke-linecap:butt;stroke-linejoin:miter;stroke-miterlimit:4;stroke-dasharray:none;stroke-opacity:1"
       d="m 290,1007.4008 -34.96145,34.9614 -35.00552,-35.0055 -34.96145,34.9615 -35.00551,-35.0055 -34.96146,34.9614 -35.005509,-35.0054 -35.500262,35.0392 L 10.132136,1007.2247 45.093598,972.26311 10.088088,937.25759 45.049551,902.29612 10.044046,867.29063 45.005515,832.32917 10,797.32365 44.96146,762.3622 l 35.005504,35.00551 34.961466,-34.96146 35.00551,35.00551 34.96145,-34.96146 35.00552,35.00549 34.96144,-34.96145 35.00551,35.0055 -34.96144,34.96146 35.0055,35.00551 -34.96145,34.96147 35.00548,35.0055 -34.96146,34.96145 L 290,1007.4008"
       id="path4138"
       inkscape:connector-curvature="0"
       sodipodi:nodetypes="ccccccccccccccccccccccccccccc" />
    <path
       style="fill:none;fill-opacity:1;fill-rule:evenodd;stroke:#000000;stroke-width:3;stroke-linecap:butt;stroke-linejoin:miter;stroke-miterlimit:4;stroke-dasharray:none;stroke-opacity:1"
       d="m 213.1995,949.78004 -15.78275,15.78272 -15.80263,-15.80263 -15.78273,15.78276 -15.80264,-15.80262 -15.78273,15.78271 -15.80264,-15.80257 -16.02597,15.81783 -15.559395,-15.8377 15.782745,-15.7828 L 86.83813,918.1151 102.62087,902.33236 86.818248,886.52973 102.601,870.74699 86.798364,854.94436 l 15.782746,-15.78274 15.80262,15.80263 15.78275,-15.78274 15.80263,15.80263 15.78273,-15.78274 15.80264,15.80261 15.78273,-15.78273 15.80263,15.80262 -15.78273,15.78274 15.80262,15.80263 -15.78274,15.78274 15.80262,15.80263 -15.78275,15.78274 15.80264,15.80266"
       id="path4138-3"
       inkscape:connector-curvature="0"
       sodipodi:nodetypes="ccccccccccccccccccccccccccccc" />
    <circle
       style="opacity:1;fill:#20568c;fill-opacity:1;stroke:none;stroke-width:3;stroke-linecap:round;stroke-miterlimit:4;stroke-dasharray:none;stroke-opacity:1"
       id="path6074"
       cx="127.33334"
       cy="925.02887"
       r="11.333333" />
    <circle
       style="opacity:1;fill:#20568c;fill-opacity:1;stroke:none;stroke-width:3;stroke-linecap:round;stroke-miterlimit:4;stroke-dasharray:none;stroke-opacity:1"
       id="path6074-6"
       cx="172.66667"
       cy="925.02887"
       r="11.333333" />
    <circle
       style="opacity:1;fill:#20568c;fill-opacity:1;stroke:none;stroke-width:3;stroke-linecap:round;stroke-miterlimit:4;stroke-dasharray:none;stroke-opacity:1"
       id="path6074-1"
       cx="172.66667"
       cy="879.6955"
       r="11.333333" />
    <circle
       style="opacity:1;fill:#20568c;fill-opacity:1;stroke:none;stroke-width:3;stroke-linecap:round;stroke-miterlimit:4;stroke-dasharray:none;stroke-opacity:1"
       id="path6074-2"
       cx="127.33334"
       cy="879.6955"
       r="11.333333" />
    <circle
       style="opacity:1;fill:#20568c;fill-opacity:1;stroke:none;stroke-width:3;stroke-linecap:round;stroke-miterlimit:4;stroke-dasharray:none;stroke-opacity:1"
       id="path6074-9"
       cx="150"
       cy="902.36218"
       r="11.333333" />
  </g>
</svg>
